{
	"id": "d2464d70-88bf-4053-9c40-aceba42ff17b",
	"name": "SIT Mobile",
	"values": [
		{
			"key": "base.url",
			"value": "https://market-final-project.binaracademy.org",
			"type": "default",
			"enabled": true
		},
		{
			"key": "token",
			"value": "eyJhbGciOiJIUzI1NiIsInR5cCI6IkpXVCJ9.eyJlbWFpbCI6IndpdGhqdXdpdGFAZ21haWwuY29tIiwiaWF0IjoxNzA0MjY2ODg1fQ.jkozfsGGVNa4yvvOBaf9yLHApnY5kP1Kv_Cbed452H0",
			"type": "default",
			"enabled": true
		}
	],
	"_postman_variable_scope": "environment",
	"_postman_exported_at": "2024-01-21T01:46:18.347Z",
	"_postman_exported_using": "Postman/10.22.3"
}